  v0 = gen_value(0, 0, board[0]);
  assert(v0 == 1754831936);
  v1 = gen_value(0, 4, board[4]);
  assert(v1 == 1322670498);
  v2 = gen_value(0, 6, board[6]);
  assert(v2 == 2075469024);
  v3 = gen_value(0, 7, board[7]);
  assert(v3 == 1924349448);
  v4 = gen_value(1, 2, board[11]);
  assert(v4 == 1737338032);
  v5 = gen_value(1, 4, board[13]);
  assert(v5 == 382094521);
  v6 = gen_value(1, 5, board[14]);
  assert(v6 == 2003484635);
  v7 = gen_value(1, 6, board[15]);
  assert(v7 == 1224890436);
  v8 = gen_value(2, 4, board[22]);
  assert(v8 == 613863398);
  v9 = gen_value(2, 5, board[23]);
  assert(v9 == 2131248558);
  v10 = gen_value(2, 7, board[25]);
  assert(v10 == 1855404474);
  v11 = gen_value(3, 0, board[27]);
  assert(v11 == 203716718);
  v12 = gen_value(3, 2, board[29]);
  assert(v12 == 2132752585);
  v13 = gen_value(4, 0, board[36]);
  assert(v13 == 54194304);
  v14 = gen_value(4, 1, board[37]);
  assert(v14 == 548400147);
  v15 = gen_value(4, 7, board[43]);
  assert(v15 == 2040844259);
  v16 = gen_value(4, 8, board[44]);
  assert(v16 == 348846481);
  v17 = gen_value(5, 6, board[51]);
  assert(v17 == 712829567);
  v18 = gen_value(5, 8, board[53]);
  assert(v18 == 198917626);
  v19 = gen_value(6, 1, board[55]);
  assert(v19 == 1999818593);
  v20 = gen_value(6, 3, board[57]);
  assert(v20 == 47214827);
  v21 = gen_value(6, 4, board[58]);
  assert(v21 == 117615071);
  v22 = gen_value(7, 2, board[65]);
  assert(v22 == 1948118465);
  v23 = gen_value(7, 3, board[66]);
  assert(v23 == 345110140);
  v24 = gen_value(7, 4, board[67]);
  assert(v24 == 2113220118);
  v25 = gen_value(7, 6, board[69]);
  assert(v25 == 443730372);
  v26 = gen_value(8, 1, board[73]);
  assert(v26 == 2136198019);
  v27 = gen_value(8, 2, board[74]);
  assert(v27 == 1427855150);
  v28 = gen_value(8, 4, board[76]);
  assert(v28 == 323649682);
  v29 = gen_value(8, 8, board[80]);
  assert(v29 == 1443247958);
